{
	id: '9be7b20e-58b4-4bd2-8b1d-49d41a676685',

	name: 'misskey-gruvbox-light-medium',
	author: '@razzlom@quietplace.xyz',
	desc: 'Misskey gruvbox-light-medium theme. Inspired by https://github.com/morhetz/gruvbox',

	base: 'light',

	props: {
		bg: '#fbf1c7',
		fg: '#3c3836',
		fgHighlighted: '#fbf1c7',
		divider: '#7c6f64',
		panel: '#f9f5c7',
		panelHeaderBg: '@panel',
		panelHeaderDivider: '@divider',
		header: ':alpha<0.7<@panel',
		navBg: '#f9f5c7',
		accent: '#98971a',
		renote: '@accent',
		mention: '#98971a',
		mentionMe: '#9d0006',
		hashtag: '#458588',
		link: '#b16286',
		buttonGradateA: '#98971a',
		buttonGradateB: '#98971a',
		badge: '#458588',
		success: '#98971a',
		error: '#fb4934',
		warn: '#d65d0e',
	},
}

